Get Binance Klines API data — binance_klines • ppcryptoparser
…
      symbol
      [character]

The currency pair.

    Value

    tibble::tibble

    Examples

# 2021-06-24
binance_klines("1630808472")

#> # A tibble: 349 × 12
#>        Timestamp Open       High       Low   Close Volume `Close Time` `Quote asset vo…
#>            <dbl> <chr>      <chr>      <chr> <chr> <chr>         <dbl> <chr>           
#>  1 1604016000000 5.27000000 5.27000000 3.45… 3.52… 4270.…      1.60e12 15020.85481100  
#>  2 1604102400000 3.49300000 3.69400000 3.49… 3.60… 4081.…      1.60e12 14813.35247300  
#>  3 1604188800000 3.59500000 3.63300000 3.54… 3.63… 2220.…      1.60e12 7960.53372500   
#>  4 1604275200000 3.64100000 3.66800000 3.42… 3.47… 14574…      1.60e12 51129.14293800  
#>  5 1604361600000 3.47300000 3.49400000 3.35… 3.43… 17126…      1.60e12 58221.12018300  
#>  6 1604448000000 3.43900000 3.54800000 3.33… 3.49… 16333…      1.60e12 56230.12557000  
#>  7 1604534400000 3.49700000 3.64500000 3.40… 3.58… 13446…      1.60e12 47405.62429900  
#>  8 1604620800000 3.56700000 3.90600000 3.55… 3.90… 20799…      1.60e12 78601.76232600  
#>  9 1604707200000 3.87800000 4.07600000 3.41… 3.55… 16197…      1.60e12 59625.13136000  
#> 10 1604793600000 3.54600000 3.72600000 3.48… 3.67… 6620.…      1.60e12 24211.46845600  
#> # … with 339 more rows, and 4 more variables: Number of trades <int>,
#> #   Taker buy base asset volume <chr>, Taker buy quote asset volume <chr>,
#> #   Ignore <chr>
…
